<?xml version="1.0" encoding="UTF-8" standalone="no"?>
<svg
   xmlns:dc="http://purl.org/dc/elements/1.1/"
   xmlns:cc="http://creativecommons.org/ns#"
   xmlns:rdf="http://www.w3.org/1999/02/22-rdf-syntax-ns#"
   xmlns:svg="http://www.w3.org/2000/svg"
   xmlns="http://www.w3.org/2000/svg"
   version="1.1"
   id="svg6876"
   viewBox="0 0 14.16015 21.15784"
   height="21.157839"
   width="14.16015">
  <defs
     id="defs6878" />
  <metadata
     id="metadata6881">
    <rdf:RDF>
      <cc:Work
         rdf:about="">
        <dc:format>image/svg+xml</dc:format>
        <dc:type
           rdf:resource="http://purl.org/dc/dcmitype/StillImage" />
        <dc:title></dc:title>
      </cc:Work>
    </rdf:RDF>
  </metadata>
  <g
     transform="translate(-367.91993,-521.78328)"
     id="layer1">
    <path
       id="polygon6882"
       d="m 369.30274,521.78328 -1.38281,3.45784 7.07969,17.7 7.08046,-17.7008 -1.38359,-3.45704 -4.31407,0 -1.3828,3.45784 -1.38282,-3.45784 -4.31406,0 z"
       style="display:inline;fill:#c80028;fill-opacity:1;stroke:none;stroke-miterlimit:10;stroke-opacity:1" />
  </g>
</svg>
