<?xml version="1.0" encoding="UTF-8" standalone="no"?>
<svg
   xmlns:dc="http://purl.org/dc/elements/1.1/"
   xmlns:cc="http://creativecommons.org/ns#"
   xmlns:rdf="http://www.w3.org/1999/02/22-rdf-syntax-ns#"
   xmlns:svg="http://www.w3.org/2000/svg"
   xmlns="http://www.w3.org/2000/svg"
   version="1.1"
   id="svg14009"
   viewBox="0 0 70.941001 15.636"
   height="15.636"
   width="70.941002">
  <defs
     id="defs14011" />
  <metadata
     id="metadata14014">
    <rdf:RDF>
      <cc:Work
         rdf:about="">
        <dc:format>image/svg+xml</dc:format>
        <dc:type
           rdf:resource="http://purl.org/dc/dcmitype/StillImage" />
        <dc:title></dc:title>
      </cc:Work>
    </rdf:RDF>
  </metadata>
  <g
     transform="translate(0,-1036.7261)"
     id="layer1">
    <g
       style="stroke:#c80028;stroke-opacity:1"
       id="g13974"
       transform="matrix(1.25,0,0,-1.25,-728.52934,1086.5442)">
      <g
         id="g13856"
         transform="translate(275.82979,-209.5254)"
         style="stroke:#c80028;stroke-width:1;stroke-miterlimit:10;stroke-dasharray:none;stroke-opacity:1">
        <path
           id="path13858"
           style="fill:none;stroke:#c80028;stroke-width:1;stroke-linecap:square;stroke-linejoin:bevel;stroke-miterlimit:10;stroke-dasharray:none;stroke-opacity:1"
           d="m 334.9707,248.709 5.668,-11.338 5.669,11.338" />
      </g>
      <g
         id="g13848"
         transform="translate(381.01497,-209.52551)"
         style="stroke:#c80028;stroke-width:1;stroke-miterlimit:10;stroke-dasharray:none;stroke-opacity:1">
        <path
           d="m 213.6475,237.3711 0,11.338 -5.67,-3.703 -5.669,3.703 0,-11.338"
           style="fill:none;stroke:#c80028;stroke-width:1;stroke-linecap:square;stroke-linejoin:bevel;stroke-miterlimit:10;stroke-dasharray:none;stroke-opacity:1"
           id="path13850" />
      </g>
      <g
         id="g13852"
         transform="translate(366.07358,-209.5254)"
         style="stroke:#c80028;stroke-width:1;stroke-miterlimit:10;stroke-dasharray:none;stroke-opacity:1">
        <path
           id="path13854"
           style="fill:none;stroke:#c80028;stroke-width:1;stroke-linecap:square;stroke-linejoin:bevel;stroke-miterlimit:10;stroke-dasharray:none;stroke-opacity:1"
           d="m 241.7109,248.709 -8.504,0 -1.418,-1.416 0,-8.505 1.418,-1.417 8.504,0 1.416,1.417 0,8.505 -1.416,1.416 z" />
      </g>
      <g
         id="g13898"
         transform="translate(441.7499,-243.9254)"
         style="stroke:#c80028;stroke-width:1;stroke-miterlimit:10;stroke-dasharray:none;stroke-opacity:1">
        <path
           d="m 194.1266,283.1104 -11.339,-4e-4 0,-11.339 11.339,0"
           style="fill:none;stroke:#c80028;stroke-width:1;stroke-linecap:square;stroke-linejoin:bevel;stroke-miterlimit:10;stroke-dasharray:none;stroke-opacity:1"
           id="path13862" />
        <path
           d="m 182.7877,274.6061 5.5,0"
           style="fill:none;stroke:#c80028;stroke-width:1;stroke-linecap:square;stroke-linejoin:bevel;stroke-miterlimit:10;stroke-dasharray:none;stroke-opacity:1"
           id="path13864" />
      </g>
      <g
         id="g13902"
         transform="translate(436.84901,-243.9254)"
         style="stroke:#c80028;stroke-width:1;stroke-miterlimit:10;stroke-dasharray:none;stroke-opacity:1">
        <path
           id="path13868"
           style="fill:none;stroke:#c80028;stroke-width:1;stroke-linecap:square;stroke-linejoin:bevel;stroke-miterlimit:10;stroke-dasharray:none;stroke-opacity:1"
           d="m 202.22751,274.6061 0,8.5043" />
        <path
           d="m 202.22751,271.914 0,-0.143"
           style="fill:none;stroke:#c80028;stroke-width:1;stroke-linecap:square;stroke-linejoin:bevel;stroke-miterlimit:10;stroke-dasharray:none;stroke-opacity:1"
           id="path2578-9" />
      </g>
    </g>
  </g>
</svg>
